{
  "mainTree":"euw",
  "dcs": {
    "oce": {
      "ip": "10.15.0.4",
      "keyspaces": ["oce", "as", "euw"],
      "paths": {
        "oce": ["nae", "jap", "as", "ind", "ca", "naw", "euw", "br"]
      }
    },
    "br": {
      "ip": "10.14.0.4",
      "keyspaces": ["br", "as", "naw"],
      "paths": {
        "br": ["nae", "jap", "as", "oce", "ind", "ca", "naw", "euw"]
      }
    },
    "as": {
      "ip": "10.18.0.4",
      "keyspaces": ["as", "oce", "jap", "ind"],
      "paths": {
        "as": ["nae", "jap", "oce", "ind", "ca", "naw", "euw", "br"]
      }
    },
    "nae": {
      "ip": "10.12.0.4",
      "keyspaces": ["br", "nae", "euw", "ca"],
      "paths": {
        "nae": ["jap", "as", "oce", "ind", "ca", "naw", "euw", "br"]
      }
    },
    "naw": {
      "ip": "10.11.0.4",
      "keyspaces": ["oce", "br", "nae", "naw", "jap", "ca"],
      "paths": {
        "naw": ["nae", "jap", "as", "oce", "ind", "ca", "euw", "br"]
      }
    },
    "euw": {
      "ip": "10.10.0.4",
      "keyspaces": ["nae", "euw", "ind"],
      "paths": {
        "euw": ["nae", "jap", "as", "oce", "ind", "ca", "naw", "br"]
      }
    },
    "jap": {
      "ip": "10.13.0.4",
      "keyspaces": ["as", "jap", "ind", "ca"],
      "paths": {
        "jap": ["nae", "as", "oce", "ind", "ca", "naw", "euw", "br"]
      }
    },
    "ind": {
      "ip": "10.16.0.4",
      "keyspaces": ["as", "nae", "euw", "ind"],
      "paths": {
        "ind": ["nae", "jap", "as", "oce", "ca", "naw", "euw", "br"]
      }
    },
    "ca": {
      "ip": "10.17.0.4",
      "keyspaces": ["br", "nae", "naw", "euw", "ca"],
      "paths": {
        "ca": ["nae", "jap", "as", "oce", "ind", "naw", "euw", "br"]
      }
    }
  }
}